{
    "Width": 400,
    "Height": 300,
    "MinWidth": 100,
    "MinHeight": 100,
    "DisplayName": "2D box plot",
    "Description": "## 2D Box Plot\nFor each category in `categories`, a 1D box plot will be produced using the corresponding values in `values`.\n\nBy default, the whiskers of the box plot reach until up to 1.5 times the IQR, with points outside this range being indicated as outliers. This factor is adjustable through the `extent` option. Set `extent` to `min-max` to make the whiskers cover the full range of the data.",
    "AutoExecuteOnChange": false,
    "AutoExecuteOnCreate": false,
    "InputUI": [
        {
            "Id": "values",
            "Icon": "fas fa-bullseye",
            "AttributeConfigGroupInputName": "values",
            "__discriminator": "AttributeSelectorInputUIType"
        },
        {
            "Id": "categories",
            "Icon": "fas fa-tag",
            "AttributeConfigGroupInputName": "categories",
            "__discriminator": "AttributeSelectorInputUIType"
        },
        {
            "Id": "title",
            "Icon": "fas fa-edit",
            "ValueInputName": "title",
            "__discriminator": "StringValueInputUIType"
        },
        {
            "Id": "extent",
            "Icon": "fas fa-ruler-horizontal",
            "ValueInputName": "extent",
            "__discriminator": "StringValueInputUIType"
        }
    ],
    "ComputationDescription": {
        "DataframeInputModels": [
            {
                "Name": "input",
                "DisplayName": "input"
            }
        ],
        "DataframeOutputModels": [
            {
                "Name": "output",
                "DisplayName": "output"
            }
        ],
        "AttributeConfigGroupInputDescription": {
            "values": {
                "FromDataframe": "input",
                "Name": "values",
                "DisplayName": "values",
                "MaxNr": 1,
                "MinNr": 1,
                "AllowTimestamps": false
            },
            "categories": {
                "FromDataframe": "input",
                "Name": "categories",
                "DisplayName": "categories",
                "MaxNr": 1,
                "MinNr": 1,
                "AllowTimestamps": false
            }
        },
        "ValueInputDescription": {
            "title": {
                "Name": "title",
                "DisplayName": "title",
                "DefaultValue": "untitled",
                "When": "true",
                "__discriminator": "StringValueInputDescription"
            },
            "extent": {
                "Name": "extent",
                "DisplayName": "extent",
                "DefaultValue": "1.5",
                "When": "true",
                "__discriminator": "StringValueInputDescription"
            }
        }
    }
}