{
    "Width": 400,
    "Height": 300,
    "MinWidth": 100,
    "MinHeight": 100,
    "DisplayName": "pie chart",
    "Description": "## Simple Pie Chart\n**Slices**: the attribute determining slice sizes\n**Labels**: the attribute determining slice labels\n\n**Slice Size** and **Color Gradient** control how slice sizes and color gradients are determined.\n\n### Options:\n\n- **Nominal**: unordered\n- **Ordinal**: ordered, equal spacing\n- **Quantitative**: ordered, sized\n- **Temporal**: by date\n\nClick [here](https://vega.github.io/vega-lite/docs/type.html) for more details on type options.",
    "AutoExecuteOnChange": false,
    "AutoExecuteOnCreate": false,
    "InputUI": [
        {
            "Id": "slices",
            "Icon": "fas fa-circle",
            "AttributeConfigGroupInputName": "slices",
            "__discriminator": "AttributeSelectorInputUIType"
        },
        {
            "Id": "labels",
            "Icon": "fas fa-tag",
            "AttributeConfigGroupInputName": "labels",
            "__discriminator": "AttributeSelectorInputUIType"
        },
        {
            "Id": "title",
            "Icon": "fas fa-heading",
            "ValueInputName": "title",
            "__discriminator": "StringValueInputUIType"
        },
        {
            "Id": "settings",
            "DisplayName": "settings",
            "Icon": "fas fa-cog",
            "Inputs": [
                {
                    "Id": "slice-size-type",
                    "ValueInputName": "slice-size-type",
                    "__discriminator": "ValueSelectorInputUIType"
                },
                {
                    "Id": "color-gradient-type",
                    "ValueInputName": "color-gradient-type",
                    "__discriminator": "ValueSelectorInputUIType"
                }
            ],
            "Sizes": [
                0.5,
                0.5
            ],
            "__discriminator": "CompositeInputUIType"
        }
    ],
    "ComputationDescription": {
        "DataframeInputModels": [
            {
                "Name": "input",
                "DisplayName": "input"
            }
        ],
        "DataframeOutputModels": [
            {
                "Name": "output",
                "DisplayName": "output"
            }
        ],
        "AttributeConfigGroupInputDescription": {
            "slices": {
                "FromDataframe": "input",
                "Name": "slices",
                "DisplayName": "slices",
                "MaxNr": 1,
                "MinNr": 1,
                "AllowTimestamps": false,
                "AllowStrings": false
            },
            "labels": {
                "FromDataframe": "input",
                "Name": "labels",
                "DisplayName": "labels",
                "MaxNr": 1,
                "MinNr": 1,
                "AllowTimestamps": false
            }
        },
        "ValueInputDescription": {
            "title": {
                "DisplayName": "title",
                "DefaultValue": "untitled",
                "When": "true",
                "__discriminator": "StringValueInputDescription"
            },
            "slice-size-type": {
                "DisplayName": "slice size type",
                "DefaultValue": "quantitative",
                "Options": {
                    "true": [
                        {
                            "Key": "nominal",
                            "DisplayName": "nominal"
                        },
                        {
                            "Key": "ordinal",
                            "DisplayName": "ordinal"
                        },
                        {
                            "Key": "quantitative",
                            "DisplayName": "quantitative"
                        },
                        {
                            "Key": "temporal",
                            "DisplayName": "temporal"
                        }
                    ]
                },
                "__discriminator": "OptionsValueInputDescription"
            },
            "color-gradient-type": {
                "DisplayName": "color gradient type",
                "DefaultValue": "nominal",
                "Options": {
                    "true": [
                        {
                            "Key": "nominal",
                            "DisplayName": "nominal"
                        },
                        {
                            "Key": "ordinal",
                            "DisplayName": "ordinal"
                        },
                        {
                            "Key": "quantitative",
                            "DisplayName": "quantitative"
                        },
                        {
                            "Key": "temporal",
                            "DisplayName": "temporal"
                        }
                    ]
                },
                "__discriminator": "OptionsValueInputDescription"
            }
        }
    }
}