{
    "Width": 400,
    "Height": 300,
    "MinWidth": 100,
    "MinHeight": 100,
    "AutoExecuteOnChange": false,
    "AutoExecuteOnCreate": false,
    "ComputationDescription": {
        "Type": "impute",
        "DataframeInputModels": [
            {
                "Name": "input",
                "DisplayName": "input"
            }
        ],
        "DataframeOutputModels": [
            {
                "Name": "output",
                "DisplayName": "output"
            }
        ],
        "AttributeConfigGroupInputDescription": {
            "mode": {
                "FromDataframe": "input",
                "Name": "features to impute with mode",
                "DisplayName": "mode",
                "MaxNr": -1,
                "MinNr": 1,
                "AllowTimestamps": true,
                "AllowNumeric": true
            }
        },
        "ValueInputDescription": {
            "nan": {
                "DisplayName": "nan",
                "DefaultValue": 0,
                "MinValue": 0,
                "MaxValue": 1,
                "StepSize": 1,
                "__discriminator": "NumberRangeValueInputDescription"
            },
            "infinity": {
                "DisplayName": "infinity",
                "DefaultValue": 0,
                "MinValue": 0,
                "MaxValue": 1,
                "StepSize": 1,
                "__discriminator": "NumberRangeValueInputDescription"
            }
        }
    }
}