{
    "Width": 225,
    "Height": 150,
    "MinWidth": 100,
    "MinHeight": 100,
    "DisplayName": "uppercase",
    "Description": "### Uppercase\nConvert all characters in the specified columns to uppercase.",
    "AutoExecuteOnChange": false,
    "AutoExecuteOnCreate": false,
    "InputUI": [
        {
            "Id": "features",
            "Icon": "fas fa-tag",
            "AttributeConfigGroupInputName": "features",
            "__discriminator": "AttributeSelectorInputUIType"
        }
    ],
    "ComputationDescription": {
        "DataframeInputModels": [
            {
                "Name": "input",
                "DisplayName": "input"
            }
        ],
        "DataframeOutputModels": [
            {
                "Name": "output",
                "DisplayName": "output"
            }
        ],
        "AttributeConfigGroupInputDescription": {
            "features": {
                "FromDataframe": "input",
                "Name": "features",
                "DisplayName": "features",
                "MaxNr": -1,
                "MinNr": 1,
                "AllowTimestamps": false,
                "AllowStrings": true,
                "AllowNumeric": false
            }
        },
        "ValueInputDescription": {}
    }
}