{
    "Type": "random sample",
    "DisplayName": "random sample",
    "Width": 350,
    "Height": 200,
    "MinWidth": 100,
    "MinHeight": 100,
    "AutoExecuteOnChange": false,
    "AutoExecuteOnCreate": false,
    "InputUI": [
        {
            "Id": "sampling_axis",
            "Icon": "fas fa-ruler",
            "ValueInputName": "sampling_axis",
            "__discriminator": "ValueSelectorInputUIType"
        },
        {
            "Id": "proportion",
            "DisplayName": "proportion",
            "Icon": "fas fa-heading",
            "Inputs": [
                {
                    "Id": "fraction",
                    "ValueInputName": "fraction",
                    "__discriminator": "NumberValueInputUIType"
                },
                {
                    "Id": "number",
                    "ValueInputName": "number",
                    "__discriminator": "NumberValueInputUIType"
                }
            ],
            "Sizes": [
                0.2,
                0.2
            ],
            "__discriminator": "CompositeInputUIType"
        },
        {
            "Id": "settings",
            "DisplayName": "settings",
            "Icon": "fas fa-cog",
            "Inputs": [
                {
                    "Id": "replacement",
                    "ValueInputName": "replacement",
                    "__discriminator": "BooleanValueInputUIType"
                },
                {
                    "Id": "seed",
                    "ValueInputName": "seed",
                    "__discriminator": "NumberValueInputUIType"
                }
            ],
            "Sizes": [
                0.15,
                0.2
            ],
            "__discriminator": "CompositeInputUIType"
        }
    ],
    "ComputationDescription": {
        "DataframeInputModels": [
            {
                "Name": "input",
                "DisplayName": "input"
            }
        ],
        "DataframeOutputModels": [
            {
                "Name": "output",
                "DisplayName": "output"
            }
        ],
        "AttributeConfigGroupInputDescription": {},
        "ValueInputDescription": {
            "sampling_axis": {
                "DisplayName": "axis",
                "DefaultValue": "0",
                "Options": {
                    "true": [
                        {
                            "Key": "0",
                            "DisplayName": "rows"
                        },
                        {
                            "Key": "1",
                            "DisplayName": "columns"
                        }
                    ]
                },
                "__discriminator": "OptionsValueInputDescription"
            },
            "fraction": {
                "DisplayName": "fraction",
                "DefaultValue": 0.5,
                "__discriminator": "NumberValueInputDescription"
            },
            "number": {
                "DisplayName": "number",
                "DefaultValue": 0,
                "__discriminator": "NumberValueInputDescription"
            },
            "replacement": {
                "DisplayName": "replacement",
                "DefaultValue": false,
                "__discriminator": "BooleanValueInputDescription"
            },
            "seed": {
                "DisplayName": "random seed",
                "DefaultValue": 0,
                "__discriminator": "NumberValueInputDescription"
            }
        }
    }
}