{
    "Width": 225,
    "Height": 150,
    "MinWidth": 100,
    "MinHeight": 100,
    "DisplayName": "top",
    "Description": "### Top\nSelect the rows of a dataframe with the highest values of the selected column.",
    "AutoExecuteOnChange": false,
    "AutoExecuteOnCreate": false,
    "InputUI": [
        {
            "Id": "target",
            "Icon": "fas fa-bullseye",
            "AttributeConfigGroupInputName": "target",
            "__discriminator": "AttributeSelectorInputUIType"
        },
        {
            "Id": "number",
            "Icon": "fas fa-sort-numeric-up-alt",
            "ValueInputName": "number",
            "__discriminator": "NumberValueInputUIType"
        }
    ],
    "ComputationDescription": {
        "DataframeInputModels": [
            {
                "Name": "input",
                "DisplayName": "input"
            }
        ],
        "DataframeOutputModels": [
            {
                "Name": "output",
                "DisplayName": "output"
            }
        ],
        "AttributeConfigGroupInputDescription": {
            "target": {
                "FromDataframe": "input",
                "Name": "target",
                "MaxNr": 1,
                "MinNr": 1,
                "AllowTimestamps": false,
                "AllowStrings": false,
                "DisplayName": "target"
            }
        },
        "ValueInputDescription": {
            "number": {
                "DisplayName": "# rows",
                "DefaultValue": 10,
                "__discriminator": "NumberValueInputDescription"
            }
        }
    }
}