{
    "Width": 400,
    "Height": 300,
    "MinWidth": 100,
    "MinHeight": 100,
    "AutoExecuteOnChange": false,
    "AutoExecuteOnCreate": false,
    "ComputationDescription": {
        "DataframeInputModels": [
            {
                "Name": "input",
                "DisplayName": "input"
            }
        ],
        "DataframeOutputModels": [
            {
                "Name": "output",
                "DisplayName": "output"
            }
        ],
        "AttributeConfigGroupInputDescription": {
                "target": {
                    "FromDataframe": "input",
                    "Name": "target",
                    "DisplayName": "target",
                    "MaxNr": 1,
                    "MinNr": 1
                }
        },
        "ValueInputDescription": {
            "separator": {
                "DisplayName": "Separator",
                "DefaultValue": ",",
                "When": "true",
                "__discriminator": "StringValueInputDescription"
            }
        }
    }
}