{
    "$schema": "https://vega.github.io/schema/vega/v5.json",
    "description": "A word cloud visualization depicting Vega research paper abstracts.",
    "width": 800,
    "height": 400,
    "padding": 0,
    "data": [],
    "scales": [
        {
            "name": "color",
            "type": "ordinal",
            "domain": {
                "data": "einblick-data",
                "field": "title"
            },
            "range": [
                "#d5a928",
                "#652c90",
                "#939597"
            ]
        }
    ],
    "marks": [
        {
            "type": "text",
            "from": {
                "data": "einblick-data"
            },
            "encode": {
                "enter": {
                    "text": {
                        "field": "title"
                    },
                    "align": {
                        "value": "center"
                    },
                    "baseline": {
                        "value": "alphabetic"
                    },
                    "fill": {
                        "scale": "color",
                        "field": "title"
                    }
                },
                "update": {
                    "fillOpacity": {
                        "value": 1
                    }
                },
                "hover": {
                    "fillOpacity": {
                        "value": 0.5
                    }
                }
            },
            "transform": [
                {
                    "type": "wordcloud",
                    "size": [
                        container_width,
                        container_height
                    ],
                    "text": {
                        "field": "text"
                    },
                    "rotate": {
                        "field": "datum.angle"
                    },
                    "font": "Helvetica Neue, Arial",
                    "fontSize": {
                        "field": "datum.count"
                    },
                    "fontWeight": 300,
                    "fontSizeRange": [
                        12,
                        100
                    ],
                    "padding": 2
                }
            ]
        }
    ]
}