{
    "Type": "scatterplot",
    "DisplayName": "scatterplot",
    "Description": "### Scatterplot\nCreates a scatterplot with the given `x` and `y` attributes.",
    "Width": 420,
    "Height": 210,
    "AutoExecuteOnChange": false,
    "SliceOutput": false,
    "InputUI": [
        {
            "Id": "x",
            "Icon": "fas fa-arrows-alt-h",
            "AttributeConfigGroupInputName": "x",
            "__discriminator": "AttributeSelectorInputUIType"
        },
        {
            "Id": "y",
            "Icon": "fas fa-arrows-alt-v",
            "AttributeConfigGroupInputName": "y",
            "__discriminator": "AttributeSelectorInputUIType"
        },
        {
            "Id": "fontSize",
            "Icon": "fas fa-heading",
            "ValueInputName": "fontSize",
            "__discriminator": "NumberRangeInputUIType"
        }
    ],
    "ComputationDescription": {
        "Type": "scatterplot",
        "AttributeConfigGroupInputDescription": {
            "x": {
                "FromDataframe": "input",
                "Name": "x",
                "MaxNr": 1,
                "MinNr": 1,
                "AllowTimestamps": false,
                "AllowStrings": false,
                "DisplayName": "x"
            },
            "y": {
                "FromDataframe": "input",
                "Name": "y",
                "MaxNr": 1,
                "MinNr": 1,
                "AllowTimestamps": false,
                "AllowStrings": false,
                "DisplayName": "y"
            }
        },
        "DataframeInputModels": [
            {
                "Name": "input",
                "DisplayName": "input"
            }
        ],
        "DataframeOutputModels": [
            {
                "Name": "output",
                "DisplayName": "output"
            }
        ],
        "ValueInputDescription": {
            "fontSize": {
                "DisplayName": "font size",
                "DefaultValue": 10,
                "MinValue": 1,
                "MaxValue": 20,
                "StepSize": 1,
                "__discriminator": "NumberRangeValueInputDescription"
            }
        }
    }
}